^C:\USERS\01149922\DOCUMENTS\STUDIA\INFA II\WZOR INF\GAUSS_LEGENDRE.C
C:\USERS\01149922\DOCUMENTS\STUDIA\INFA II\WZOR INF\DEBUG\VC142.PDB
C:\USERS\01149922\DOCUMENTS\STUDIA\INFA II\WZOR INF\DEBUG\VC142.IDB
C:\USERS\01149922\DOCUMENTS\STUDIA\INFA II\WZOR INF\DEBUG\GAUSS_LEGENDRE.OBJ
^C:\USERS\01149922\DOCUMENTS\STUDIA\INFA II\WZOR INF\MAIN.CPP|C:\USERS\01149922\DOCUMENTS\STUDIA\INFA II\WZOR INF\WINBGI2.CPP
C:\USERS\01149922\DOCUMENTS\STUDIA\INFA II\WZOR INF\DEBUG\VC142.PDB
C:\USERS\01149922\DOCUMENTS\STUDIA\INFA II\WZOR INF\DEBUG\VC142.IDB
C:\USERS\01149922\DOCUMENTS\STUDIA\INFA II\WZOR INF\DEBUG\MAIN.OBJ
C:\USERS\01149922\DOCUMENTS\STUDIA\INFA II\WZOR INF\DEBUG\WINBGI2.OBJ
^C:\USERS\01149922\DOCUMENTS\STUDIA\INFA II\WZOR INF\MAIN.CPP
C:\USERS\01149922\DOCUMENTS\STUDIA\INFA II\WZOR INF\DEBUG\VC142.PDB
^C:\USERS\01149922\DOCUMENTS\STUDIA\INFA II\WZOR INF\WINBGI2.CPP
C:\USERS\01149922\DOCUMENTS\STUDIA\INFA II\WZOR INF\DEBUG\VC142.PDB
^C:\USERS\01149922\DOCUMENTS\STUDIA\INFA II\LABY_6\MAIN.CPP|C:\USERS\01149922\DOCUMENTS\STUDIA\INFA II\LABY_6\WINBGI2.CPP
C:\USERS\01149922\DOCUMENTS\STUDIA\INFA II\LABY_6\DEBUG\VC142.PDB
C:\USERS\01149922\DOCUMENTS\STUDIA\INFA II\LABY_6\DEBUG\VC142.IDB
C:\USERS\01149922\DOCUMENTS\STUDIA\INFA II\LABY_6\DEBUG\MAIN.OBJ
C:\USERS\01149922\DOCUMENTS\STUDIA\INFA II\LABY_6\DEBUG\WINBGI2.OBJ
^C:\USERS\01149922\DOCUMENTS\STUDIA\INFA II\LABY_6\MAIN.CPP
C:\USERS\01149922\DOCUMENTS\STUDIA\INFA II\LABY_6\DEBUG\VC142.PDB
C:\USERS\01149922\DOCUMENTS\STUDIA\INFA II\LABY_6\DEBUG\VC142.IDB
C:\USERS\01149922\DOCUMENTS\STUDIA\INFA II\LABY_6\DEBUG\MAIN.OBJ
^C:\USERS\01149922\DOCUMENTS\STUDIA\INFA II\LABY_6\WINBGI2.CPP
C:\USERS\01149922\DOCUMENTS\STUDIA\INFA II\LABY_6\DEBUG\VC142.PDB
