#Command: "C:\Program Files (x86)\Microsoft Visual Studio\2019\Community\VC\Tools\MSVC\14.24.28314\bin\HostX86\x86\link.exe" /ERRORREPORT:PROMPT @C:\Users\01149922\AppData\Local\Temp\tmp046fcb0a2186415d8897883e23a3204f.rsp /nologo /incremental /fullbuild
^C:\USERS\01149922\DOCUMENTS\STUDIA\INFA II\RÓWANANIA ROZNICZKOWE\DEBUG\MAIN.OBJ|C:\USERS\01149922\DOCUMENTS\STUDIA\INFA II\RÓWANANIA ROZNICZKOWE\DEBUG\WINBGI2.OBJ
C:\USERS\01149922\DOCUMENTS\STUDIA\INFA II\RóWANANIA ROZNICZKOWE\DEBUG\WINBGI.PDB
